<?xml version="1.0" encoding="UTF-8" standalone="no"?>
<!-- Created with Inkscape (http://www.inkscape.org/) -->

<svg
   xmlns:dc="http://purl.org/dc/elements/1.1/"
   xmlns:cc="http://creativecommons.org/ns#"
   xmlns:rdf="http://www.w3.org/1999/02/22-rdf-syntax-ns#"
   xmlns:svg="http://www.w3.org/2000/svg"
   xmlns="http://www.w3.org/2000/svg"
   xmlns:sodipodi="http://sodipodi.sourceforge.net/DTD/sodipodi-0.dtd"
   xmlns:inkscape="http://www.inkscape.org/namespaces/inkscape"
   width="350"
   height="270"
   id="svg2"
   version="1.1"
   inkscape:version="0.92.3 (2405546, 2018-03-11)"
   sodipodi:docname="equilibrator_server_error.svg"
   inkscape:export-filename="/home/noore/git/equilibrator/static/images/equilibrator_logo_700px.png"
   inkscape:export-xdpi="180"
   inkscape:export-ydpi="180">
  <defs
     id="defs4" />
  <sodipodi:namedview
     id="base"
     pagecolor="#ffffff"
     bordercolor="#666666"
     borderopacity="1.0"
     inkscape:pageopacity="0.0"
     inkscape:pageshadow="2"
     inkscape:zoom="1"
     inkscape:cx="-0.66238"
     inkscape:cy="130.32582"
     inkscape:document-units="px"
     inkscape:current-layer="g4150"
     showgrid="false"
     inkscape:window-width="1920"
     inkscape:window-height="1163"
     inkscape:window-x="1920"
     inkscape:window-y="0"
     inkscape:window-maximized="1"
     units="px"
     fit-margin-top="0"
     fit-margin-left="0"
     fit-margin-right="0"
     fit-margin-bottom="0"
     inkscape:snap-page="true"
     showguides="false"
     inkscape:guide-bbox="true"
     inkscape:snap-global="false">
    <inkscape:grid
       type="xygrid"
       id="grid3757"
       empspacing="5"
       visible="true"
       enabled="true"
       snapvisiblegridlinesonly="true"
       originx="-13.957535"
       originy="-57.254035" />
    <sodipodi:guide
       position="105.72332,187.01776"
       orientation="0,1"
       id="guide832"
       inkscape:locked="false" />
  </sodipodi:namedview>
  <metadata
     id="metadata7">
    <rdf:RDF>
      <cc:Work
         rdf:about="">
        <dc:format>image/svg+xml</dc:format>
        <dc:type
           rdf:resource="http://purl.org/dc/dcmitype/StillImage" />
        <dc:title />
      </cc:Work>
    </rdf:RDF>
  </metadata>
  <g
     inkscape:label="Layer 1"
     inkscape:groupmode="layer"
     id="layer1"
     transform="translate(22.545257,-738.3551)">
    <g
       transform="matrix(1.1462017,0,0,1.1462017,-69.937277,-89.919223)"
       id="g4150">
      <path
         style="opacity:1;fill:none;fill-opacity:1;stroke:#666666;stroke-width:2.17776656;stroke-linecap:butt;stroke-linejoin:round;stroke-miterlimit:100;stroke-dasharray:none;stroke-dashoffset:0;stroke-opacity:1"
         d="m 276.60264,933.97977 c 2.00744,0.66822 3.07914,1.37155 3.07914,2.09763 7e-5,4.38666 -39.11686,7.94275 -87.37005,7.94275 -48.25319,0 -87.3701,-3.55609 -87.37004,-7.94275 m 0,0 c 0,-0.74881 1.13985,-1.47343 3.27041,-2.16027"
         id="path836"
         inkscape:connector-curvature="0"
         sodipodi:nodetypes="ccsccc" />
      <path
         sodipodi:nodetypes="ccscc"
         inkscape:connector-curvature="0"
         id="path3398"
         d="m 198.45853,923.91927 c 45.38503,0.28675 81.22324,3.72458 81.22325,7.92337 7e-5,4.38666 -39.11686,7.94275 -87.37005,7.94275 -48.25319,0 -87.3701,-3.55609 -87.37004,-7.94275 2e-5,-4.24086 36.56009,-7.70544 82.5905,-7.93105"
         style="opacity:1;fill:#f9f9f9;fill-opacity:1;stroke:#333333;stroke-width:2.17776656;stroke-linecap:square;stroke-linejoin:round;stroke-miterlimit:100;stroke-dasharray:none;stroke-dashoffset:0;stroke-opacity:1" />
      <path
         sodipodi:nodetypes="cccc"
         inkscape:connector-curvature="0"
         id="rect4200"
         d="m 197.60688,752.136 v 178.39872 m -9.64199,0 V 740.62628"
         style="opacity:1;fill:#f9f9f9;fill-opacity:1;stroke:#333333;stroke-width:2.17776656;stroke-linecap:round;stroke-linejoin:round;stroke-miterlimit:100;stroke-dasharray:none;stroke-dashoffset:0;stroke-opacity:1" />
      <g
         id="g842"
         transform="matrix(-0.95770172,-0.28776276,-0.28776276,0.95770172,456.66816,65.413968)">
        <path
           transform="matrix(-0.01306098,-1.2480115,1.2480115,-0.01306098,-872.19261,1033.6824)"
           sodipodi:type="star"
           style="fill:none;stroke:#666666;stroke-width:1.74489355;stroke-linecap:square;stroke-linejoin:round;stroke-miterlimit:3.97728157;stroke-dasharray:none;stroke-dashoffset:0;stroke-opacity:1"
           id="path2985"
           sodipodi:sides="6"
           sodipodi:cx="118.56795"
           sodipodi:cy="785.08423"
           sodipodi:r1="45.944309"
           sodipodi:r2="39.788937"
           sodipodi:arg1="1.5707963"
           sodipodi:arg2="2.0943951"
           inkscape:flatsided="true"
           inkscape:rounded="0"
           inkscape:randomized="0"
           d="m 118.56795,831.02854 -39.788941,-22.97216 -10e-7,-45.94431 39.788942,-22.97215 39.78894,22.97215 0,45.94431 z" />
        <ellipse
           transform="rotate(-90.599603)"
           style="fill:#ebc8a5;fill-opacity:1;stroke:#666666;stroke-width:2.17776656;stroke-linecap:butt;stroke-linejoin:miter;stroke-miterlimit:3.97728157;stroke-dasharray:none;stroke-dashoffset:0;stroke-opacity:1"
           id="path3911"
           cx="-876.27173"
           cy="97.158371"
           rx="38.888466"
           ry="37.744682" />
        <path
           style="fill:none;stroke:#666666;stroke-width:2.17776656;stroke-linecap:butt;stroke-linejoin:miter;stroke-miterlimit:3.97728157;stroke-dasharray:none;stroke-dashoffset:0;stroke-opacity:1"
           d="M 48.713959,876.05431 C 41.406668,843.51245 48.202714,784.34832 61.03718,738.27734"
           id="path3905"
           inkscape:connector-curvature="0"
           sodipodi:nodetypes="cc" />
      </g>
      <g
         id="g837"
         transform="matrix(1.0016178,0,0.37354357,0.59403219,-323.56458,390.95044)"
         inkscape:transform-center-x="6.0055401"
         inkscape:transform-center-y="-10.370696">
        <g
           transform="matrix(0.27460132,-1.2174964,1.2174964,0.27460132,-788.79501,984.37877)"
           id="g836">
          <path
             sodipodi:type="star"
             style="fill:none;stroke:#666666;stroke-width:1.74489355;stroke-linecap:butt;stroke-linejoin:round;stroke-miterlimit:4;stroke-dasharray:none;stroke-dashoffset:0;stroke-opacity:1"
             id="path3755"
             sodipodi:sides="6"
             sodipodi:cx="267.48422"
             sodipodi:cy="811.67047"
             sodipodi:r1="45.944309"
             sodipodi:r2="39.788937"
             sodipodi:arg1="1.5707963"
             sodipodi:arg2="2.0943951"
             inkscape:flatsided="true"
             inkscape:rounded="0"
             inkscape:randomized="0"
             d="m 267.48422,857.61478 -39.78894,-22.97215 0,-45.94431 39.78894,-22.97216 39.78894,22.97216 0,45.9443 z" />
          <path
             sodipodi:nodetypes="cc"
             inkscape:connector-curvature="0"
             id="path3915"
             d="m 307.78208,834.87412 10.39627,6.13434"
             style="fill:none;stroke:#666666;stroke-width:2.61734033;stroke-linecap:round;stroke-linejoin:miter;stroke-miterlimit:3.97728157;stroke-dasharray:none;stroke-dashoffset:0;stroke-opacity:1" />
          <text
             id="text3917"
             y="851.01068"
             x="332.10352"
             style="font-style:normal;font-variant:normal;font-weight:normal;font-stretch:normal;line-height:0%;font-family:'Droid Sans';-inkscape-font-specification:'Droid Sans';text-align:center;letter-spacing:0px;word-spacing:0px;writing-mode:lr-tb;text-anchor:middle;fill:#666666;fill-opacity:1;stroke:none"
             xml:space="preserve"><tspan
               style="font-style:normal;font-variant:normal;font-weight:normal;font-stretch:normal;font-size:17.93597603px;line-height:1.25;font-family:'Trebuchet MS';-inkscape-font-specification:'Trebuchet MS';fill:#666666"
               y="851.01068"
               x="332.10352"
               id="tspan3919"
               sodipodi:role="line">OH</tspan></text>
          <ellipse
             ry="30.242201"
             rx="31.158632"
             cy="812.09918"
             cx="267.9776"
             style="fill:#dab5f7;fill-opacity:1;stroke:#666666;stroke-width:1.74489355;stroke-linecap:butt;stroke-linejoin:miter;stroke-miterlimit:3.97728157;stroke-dasharray:none;stroke-dashoffset:0;stroke-opacity:1"
             id="path3925" />
        </g>
        <path
           sodipodi:nodetypes="cc"
           inkscape:connector-curvature="0"
           id="path854"
           d="m 196.64983,903.47455 c 6.37632,-12.06913 13.25756,-23.79195 20.26625,-34.49139"
           style="fill:none;stroke:#666666;stroke-width:2.17776656;stroke-linecap:butt;stroke-linejoin:miter;stroke-miterlimit:3.97728157;stroke-dasharray:none;stroke-dashoffset:0;stroke-opacity:1" />
      </g>
    </g>
  </g>
</svg>
