!!!SBtab Document='E. coli central carbon metabolism - balanced parameters' SBtabVersion='1.0'					
!!SBtab TableID='Configuration' TableType='Config' TableName='Configuration' SBtabVersion='1.0'					
!Option	!Value	!Comment			
p_h	7.5 dimensionless				
p_mg	3.0 dimensionless				
ionic_strength	0.25 molar				
temperature	298.15 kelvin				
algorithm	ECM				
stdev_factor	1.96				
version	3				
kcat_source	gmean				
denominator	CM				
regularization	volume				
					
!!SBtab TableID='Reaction' TableType='Reaction' TableName='Reaction' SBtabVersion='1.0'					
!ID	!ReactionFormula				
PTS_RPTSsy	D_Glucose + Phosphoenolpyruvate <=> Pyruvate + D_Glucose_6_phosphate				
PGI_R02740	D_Glucose_6_phosphate <=> D_Fructose_6_phosphate				
PFK_R04779	ATP + D_Fructose_6_phosphate <=> ADP + D_Fructose_1_6_bisphosphate				
ALD_R01070	D_Fructose_1_6_bisphosphate <=> Glycerone_phosphate + D_Glyceraldehyde_3_phosphate				
TIM_R01015	Glycerone_phosphate <=> D_Glyceraldehyde_3_phosphate				
GAP_R01061	Orthophosphate + NADplus + D_Glyceraldehyde_3_phosphate <=> NADH + 3_Phospho_D_glyceroyl_phosphate				
PGK_R01512	ADP + 3_Phospho_D_glyceroyl_phosphate <=> ATP + 3_Phospho_D_glycerate				
PGM_R01518	3_Phospho_D_glycerate <=> 2_Phospho_D_glycerate				
PGH_R00658	2_Phospho_D_glycerate <=> Phosphoenolpyruvate + H2O				
PYK_R00200	ADP + Phosphoenolpyruvate <=> Pyruvate + ATP				
PDH_R00209	Pyruvate + NADplus + CoA <=> Acetyl_CoA + NADH + CO2				
ZWF_R00835	NADPplus + D_Glucose_6_phosphate <=> NADPH + D_Glucono_1_5_lactone_6_phosphate				
GLH_R02035	D_Glucono_1_5_lactone_6_phosphate + H2O <=> 6_Phospho_D_gluconate				
PGD_R01528	6_Phospho_D_gluconate + NADPplus <=> NADPH + D_Ribulose_5_phosphate + CO2				
RPI_R01056	D_Ribulose_5_phosphate <=> D_Ribose_5_phosphate				
RPE_R01529	D_Ribulose_5_phosphate <=> D_Xylulose_5_phosphate				
TXT_R01641	D_Xylulose_5_phosphate + D_Ribose_5_phosphate <=> D_Glyceraldehyde_3_phosphate + Sedoheptulose_7_phosphate				
TAL_R08575	D_Glyceraldehyde_3_phosphate + Sedoheptulose_7_phosphate <=> D_Erythrose_4_phosphate + D_Fructose_6_phosphate				
TXT_R01067	D_Erythrose_4_phosphate + D_Xylulose_5_phosphate <=> D_Glyceraldehyde_3_phosphate + D_Fructose_6_phosphate				
CSN_R00351	Acetyl_CoA + Oxaloacetate + H2O <=> CoA + Citrate				
ACN_R01325	Citrate <=> cis_Aconitate + H2O				
ACN_R01900	cis_Aconitate + H2O <=> Isocitrate				
ICD_R00709	NADplus + Isocitrate <=> NADH + 2_Oxoglutarate + CO2				
KGD_R08549	NADplus + 2_Oxoglutarate + CoA <=> NADH + CO2 + Succinyl_CoA				
SCS_R00405	Orthophosphate + ADP + Succinyl_CoA <=> ATP + CoA + Succinate				
SDH_R02164	Ubiquinone + Succinate <=> Fumarate + Ubiquinol				
FUM_R01082	Fumarate + H2O <=> S_Malate				
MDH_R00342	S_Malate + NADplus <=> NADH + Oxaloacetate				
PPC_R00345	CO2 + Phosphoenolpyruvate + H2O <=> Orthophosphate + Oxaloacetate				
					
!!SBtab TableID='Compound' TableType='Compound' TableName='Compound' SBtabVersion='1.0'					
!ID	!Name	!Identifiers			
S_Malate	(S)-Malate	kegg:C00149			
Acetyl_CoA	Acetyl-CoA	kegg:C00024			
Fumarate	Fumarate	kegg:C00122			
cis_Aconitate	cis-Aconitate	kegg:C00417			
6_Phospho_D_gluconate	6-Phospho-D-gluconate	kegg:C00345			
Orthophosphate	Orthophosphate	kegg:C00009			
Pyruvate	Pyruvate	kegg:C00022			
NADPplus	NADP+	kegg:C00006			
NADPH	NADPH	kegg:C00005			
NADH	NADH	kegg:C00004			
NADplus	NAD+	kegg:C00003			
ATP	ATP	kegg:C00002			
H2O	H2O	kegg:C00001			
2_Oxoglutarate	2-Oxoglutarate	kegg:C00026			
Oxaloacetate	Oxaloacetate	kegg:C00036			
Ubiquinone	Ubiquinone	kegg:C00399			
D_Erythrose_4_phosphate	D-Erythrose 4-phosphate	kegg:C00279			
Ubiquinol	Ubiquinol	kegg:C00390			
ADP	ADP	kegg:C00008			
Isocitrate	Isocitrate	kegg:C00311			
D_Ribulose_5_phosphate	D-Ribulose 5-phosphate	kegg:C00199			
D_Xylulose_5_phosphate	D-Xylulose 5-phosphate	kegg:C00231			
D_Glucose_6_phosphate	D-Glucose 6-phosphate	kegg:C00092			
3_Phospho_D_glyceroyl_phosphate	3-Phospho-D-glyceroyl phosphate	kegg:C00236			
CoA	CoA	kegg:C00010			
CO2	CO2	kegg:C00011			
D_Ribose_5_phosphate	D-Ribose 5-phosphate	kegg:C00117			
Glycerone_phosphate	Glycerone phosphate	kegg:C00111			
D_Glucose	D-Glucose	kegg:C00031			
D_Fructose_1_6_bisphosphate	D-Fructose 1,6-bisphosphate	kegg:C00354			
D_Glyceraldehyde_3_phosphate	D-Glyceraldehyde 3-phosphate	kegg:C00118			
Phosphoenolpyruvate	Phosphoenolpyruvate	kegg:C00074			
Citrate	Citrate	kegg:C00158			
Succinyl_CoA	Succinyl-CoA	kegg:C00091			
3_Phospho_D_glycerate	3-Phospho-D-glycerate	kegg:C00197			
D_Glucono_1_5_lactone_6_phosphate	D-Glucono-1,5-lactone 6-phosphate	kegg:C01236			
D_Fructose_6_phosphate	D-Fructose 6-phosphate	kegg:C00085			
2_Phospho_D_glycerate	2-Phospho-D-glycerate	kegg:C00631			
Succinate	Succinate	kegg:C00042			
Sedoheptulose_7_phosphate	Sedoheptulose 7-phosphate	kegg:C05382			
					
!!SBtab TableID='Parameter' TableType='Quantity' TableName='Parameter' SBtabVersion='1.0'					
!QuantityType	!Reaction	!Compound	!Value	!Unit	!ID
equilibrium constant	PTS_RPTSsy		52122111	dimensionless	kEQ_R1
equilibrium constant	PGI_R02740		0.3654504	dimensionless	kEQ_R2
equilibrium constant	PFK_R04779		1696.7518	dimensionless	kEQ_R3
equilibrium constant	ALD_R01070		0.1905667	dimensionless	kEQ_R4
equilibrium constant	TIM_R01015		0.1086024	dimensionless	kEQ_R5
equilibrium constant	GAP_R01061		0.0003668476	dimensionless	kEQ_R6
equilibrium constant	PGK_R01512		1810.3875	dimensionless	kEQ_R7
equilibrium constant	PGM_R01518		0.18978927	dimensionless	kEQ_R8
equilibrium constant	PGH_R00658		5.1572892	dimensionless	kEQ_R9
equilibrium constant	PYK_R00200		21188.68	dimensionless	kEQ_R10
equilibrium constant	PDH_R00209		1549350.7	dimensionless	kEQ_R11
equilibrium constant	ZWF_R00835		12.743901	dimensionless	kEQ_R12
equilibrium constant	GLH_R02035		19686.771	dimensionless	kEQ_R13
equilibrium constant	PGD_R01528		12.168412	dimensionless	kEQ_R14
equilibrium constant	RPI_R01056		2.2545738	dimensionless	kEQ_R15
equilibrium constant	RPE_R01529		3.874617	dimensionless	kEQ_R16
equilibrium constant	TXT_R01641		4.6931297	dimensionless	kEQ_R17
equilibrium constant	TAL_R08575		1.3175431	dimensionless	kEQ_R18
equilibrium constant	TXT_R01067		58.351652	dimensionless	kEQ_R19
equilibrium constant	CSN_R00351		4991915.4	dimensionless	kEQ_R21
equilibrium constant	ACN_R01325		0.035482795	dimensionless	kEQ_R22
equilibrium constant	ACN_R01900		1.3171737	dimensionless	kEQ_R23
equilibrium constant	ICD_R00709		97.814638	dimensionless	kEQ_R24
equilibrium constant	KGD_R08549		87158.32	dimensionless	kEQ_R25
equilibrium constant	SCS_R00405		0.58456115	dimensionless	kEQ_R26
equilibrium constant	SDH_R02164		5756.8018	dimensionless	kEQ_R27
equilibrium constant	FUM_R01082		3.9855529	dimensionless	kEQ_R28
equilibrium constant	MDH_R00342		2.0550821E-05	dimensionless	kEQ_R29
equilibrium constant	PPC_R00345		1E-06	dimensionless	kEQ_R30
catalytic rate constant geometric mean	PTS_RPTSsy		0.12409807	1/s	kC_R1
catalytic rate constant geometric mean	PGI_R02740		17.845376	1/s	kC_R2
catalytic rate constant geometric mean	PFK_R04779		12.466487	1/s	kC_R3
catalytic rate constant geometric mean	ALD_R01070		19.043212	1/s	kC_R4
catalytic rate constant geometric mean	TIM_R01015		967.72435	1/s	kC_R5
catalytic rate constant geometric mean	GAP_R01061		170.19055	1/s	kC_R6
catalytic rate constant geometric mean	PGK_R01512		233.44102	1/s	kC_R7
catalytic rate constant geometric mean	PGM_R01518		116.34379	1/s	kC_R8
catalytic rate constant geometric mean	PGH_R00658		56.257735	1/s	kC_R9
catalytic rate constant geometric mean	PYK_R00200		1.4715221	1/s	kC_R10
catalytic rate constant geometric mean	PDH_R00209		1.7322436	1/s	kC_R11
catalytic rate constant geometric mean	ZWF_R00835		308.82966	1/s	kC_R12
catalytic rate constant geometric mean	GLH_R02035		5.0830587	1/s	kC_R13
catalytic rate constant geometric mean	PGD_R01528		139.3736	1/s	kC_R14
catalytic rate constant geometric mean	RPI_R01056		1067.6854	1/s	kC_R15
catalytic rate constant geometric mean	RPE_R01529		472.17111	1/s	kC_R16
catalytic rate constant geometric mean	TXT_R01641		34.722097	1/s	kC_R17
catalytic rate constant geometric mean	TAL_R08575		5.0160825	1/s	kC_R18
catalytic rate constant geometric mean	TXT_R01067		24.609961	1/s	kC_R19
catalytic rate constant geometric mean	CSN_R00351		66.52968	1/s	kC_R21
catalytic rate constant geometric mean	ACN_R01325		4.2523582	1/s	kC_R22
catalytic rate constant geometric mean	ACN_R01900		6.4413016	1/s	kC_R23
catalytic rate constant geometric mean	ICD_R00709		123.0221	1/s	kC_R24
catalytic rate constant geometric mean	KGD_R08549		8.285338	1/s	kC_R25
catalytic rate constant geometric mean	SCS_R00405		94.792115	1/s	kC_R26
catalytic rate constant geometric mean	SDH_R02164		82.161237	1/s	kC_R27
catalytic rate constant geometric mean	FUM_R01082		214.24008	1/s	kC_R28
catalytic rate constant geometric mean	MDH_R00342		472.32725	1/s	kC_R29
catalytic rate constant geometric mean	PPC_R00345		741.6567	1/s	kC_R30
Michaelis constant	FUM_R01082	S_Malate	0.33982355	mM	kM_R28_S_Malate
Michaelis constant	MDH_R00342	S_Malate	3.4671612	mM	kM_R29_S_Malate
Michaelis constant	PDH_R00209	Acetyl_CoA	0.034948471	mM	kM_R11_Acetyl_CoA
Michaelis constant	CSN_R00351	Acetyl_CoA	0.016796255	mM	kM_R21_Acetyl_CoA
Michaelis constant	SDH_R02164	Fumarate	0.17788195	mM	kM_R27_Fumarate
Michaelis constant	FUM_R01082	Fumarate	0.28540166	mM	kM_R28_Fumarate
Michaelis constant	ACN_R01325	cis_Aconitate	0.024895769	mM	kM_R22_cis_Aconitate
Michaelis constant	ACN_R01900	cis_Aconitate	0.02581873	mM	kM_R23_cis_Aconitate
Michaelis constant	GLH_R02035	6_Phospho_D_gluconate	0.031394406	mM	kM_R13_6_Phospho_D_gluconate
Michaelis constant	PGD_R01528	6_Phospho_D_gluconate	0.020016802	mM	kM_R14_6_Phospho_D_gluconate
Michaelis constant	GAP_R01061	Orthophosphate	2.5828005	mM	kM_R6_Orthophosphate
Michaelis constant	SCS_R00405	Orthophosphate	1.6840799	mM	kM_R26_Orthophosphate
Michaelis constant	PPC_R00345	Orthophosphate	33.131279	mM	kM_R30_Orthophosphate
Michaelis constant	PTS_RPTSsy	Pyruvate	0.20090355	mM	kM_R1_Pyruvate
Michaelis constant	PYK_R00200	Pyruvate	0.49347728	mM	kM_R10_Pyruvate
Michaelis constant	PDH_R00209	Pyruvate	0.0099448178	mM	kM_R11_Pyruvate
Michaelis constant	ZWF_R00835	NADPplus	0.0032217362	mM	kM_R12_NADPplus
Michaelis constant	PGD_R01528	NADPplus	0.018919131	mM	kM_R14_NADPplus
Michaelis constant	ZWF_R00835	NADPH	0.019079435	mM	kM_R12_NADPH
Michaelis constant	PGD_R01528	NADPH	0.000816097	mM	kM_R14_NADPH
Michaelis constant	GAP_R01061	NADH	0.018900595	mM	kM_R6_NADH
Michaelis constant	PDH_R00209	NADH	0.17119182	mM	kM_R11_NADH
Michaelis constant	ICD_R00709	NADH	0.82421689	mM	kM_R24_NADH
Michaelis constant	KGD_R08549	NADH	0.14633308	mM	kM_R25_NADH
Michaelis constant	MDH_R00342	NADH	0.0040598563	mM	kM_R29_NADH
Michaelis constant	GAP_R01061	NADplus	0.27563112	mM	kM_R6_NADplus
Michaelis constant	PDH_R00209	NADplus	0.037981708	mM	kM_R11_NADplus
Michaelis constant	ICD_R00709	NADplus	0.064715425	mM	kM_R24_NADplus
Michaelis constant	KGD_R08549	NADplus	0.011949674	mM	kM_R25_NADplus
Michaelis constant	MDH_R00342	NADplus	0.84774558	mM	kM_R29_NADplus
Michaelis constant	PFK_R04779	ATP	0.11887834	mM	kM_R3_ATP
Michaelis constant	PGK_R01512	ATP	0.47324668	mM	kM_R7_ATP
Michaelis constant	PYK_R00200	ATP	0.40340266	mM	kM_R10_ATP
Michaelis constant	SCS_R00405	ATP	0.044022749	mM	kM_R26_ATP
Michaelis constant	ICD_R00709	2_Oxoglutarate	0.82421689	mM	kM_R24__2_Oxoglutarate
Michaelis constant	KGD_R08549	2_Oxoglutarate	2.7790523	mM	kM_R25__2_Oxoglutarate
Michaelis constant	CSN_R00351	Oxaloacetate	0.011423686	mM	kM_R21_Oxaloacetate
Michaelis constant	MDH_R00342	Oxaloacetate	0.0050906431	mM	kM_R29_Oxaloacetate
Michaelis constant	PPC_R00345	Oxaloacetate	33.131279	mM	kM_R30_Oxaloacetate
Michaelis constant	SDH_R02164	Ubiquinone	0.021641358	mM	kM_R27_Ubiquinone
Michaelis constant	TAL_R08575	D_Erythrose_4_phosphate	0.034213028	mM	kM_R18_D_Erythrose_4_phosphate
Michaelis constant	TXT_R01067	D_Erythrose_4_phosphate	0.66543296	mM	kM_R19_D_Erythrose_4_phosphate
Michaelis constant	SDH_R02164	Ubiquinol	6.6153388	mM	kM_R27_Ubiquinol
Michaelis constant	PFK_R04779	ADP	0.69430252	mM	kM_R3_ADP
Michaelis constant	PGK_R01512	ADP	0.17013656	mM	kM_R7_ADP
Michaelis constant	PYK_R00200	ADP	0.13316774	mM	kM_R10_ADP
Michaelis constant	SCS_R00405	ADP	0.12316902	mM	kM_R26_ADP
Michaelis constant	ACN_R01900	Isocitrate	0.12811848	mM	kM_R23_Isocitrate
Michaelis constant	ICD_R00709	Isocitrate	1.5624793	mM	kM_R24_Isocitrate
Michaelis constant	PGD_R01528	D_Ribulose_5_phosphate	0.12842288	mM	kM_R14_D_Ribulose_5_phosphate
Michaelis constant	RPI_R01056	D_Ribulose_5_phosphate	1.7612629	mM	kM_R15_D_Ribulose_5_phosphate
Michaelis constant	RPE_R01529	D_Ribulose_5_phosphate	0.63880211	mM	kM_R16_D_Ribulose_5_phosphate
Michaelis constant	RPE_R01529	D_Xylulose_5_phosphate	0.34682668	mM	kM_R16_D_Xylulose_5_phosphate
Michaelis constant	TXT_R01641	D_Xylulose_5_phosphate	0.90970004	mM	kM_R17_D_Xylulose_5_phosphate
Michaelis constant	TXT_R01067	D_Xylulose_5_phosphate	0.88785622	mM	kM_R19_D_Xylulose_5_phosphate
Michaelis constant	PTS_RPTSsy	D_Glucose_6_phosphate	0.20090355	mM	kM_R1_D_Glucose_6_phosphate
Michaelis constant	PGI_R02740	D_Glucose_6_phosphate	0.14690494	mM	kM_R2_D_Glucose_6_phosphate
Michaelis constant	ZWF_R00835	D_Glucose_6_phosphate	0.067634802	mM	kM_R12_D_Glucose_6_phosphate
Michaelis constant	GAP_R01061	3_Phospho_D_glyceroyl_phosphate	0.016150282	mM	kM_R6__3_Phospho_D_glyceroyl_phosphate
Michaelis constant	PGK_R01512	3_Phospho_D_glyceroyl_phosphate	0.0019702363	mM	kM_R7__3_Phospho_D_glyceroyl_phosphate
Michaelis constant	PDH_R00209	CoA	0.0036497269	mM	kM_R11_CoA
Michaelis constant	CSN_R00351	CoA	49.878248	mM	kM_R21_CoA
Michaelis constant	KGD_R08549	CoA	0.011949674	mM	kM_R25_CoA
Michaelis constant	SCS_R00405	CoA	0.042531357	mM	kM_R26_CoA
Michaelis constant	PDH_R00209	CO2	0.17119182	mM	kM_R11_CO2
Michaelis constant	PGD_R01528	CO2	21.071787	mM	kM_R14_CO2
Michaelis constant	ICD_R00709	CO2	0.82421689	mM	kM_R24_CO2
Michaelis constant	KGD_R08549	CO2	0.14633308	mM	kM_R25_CO2
Michaelis constant	PPC_R00345	CO2	0.074103122	mM	kM_R30_CO2
Michaelis constant	RPI_R01056	D_Ribose_5_phosphate	2.4387073	mM	kM_R15_D_Ribose_5_phosphate
Michaelis constant	TXT_R01641	D_Ribose_5_phosphate	0.9787818	mM	kM_R17_D_Ribose_5_phosphate
Michaelis constant	ALD_R01070	Glycerone_phosphate	0.13792901	mM	kM_R4_Glycerone_phosphate
Michaelis constant	TIM_R01015	Glycerone_phosphate	8.4336857	mM	kM_R5_Glycerone_phosphate
Michaelis constant	PTS_RPTSsy	D_Glucose	0.0085306826	mM	kM_R1_D_Glucose
Michaelis constant	PFK_R04779	D_Fructose_1_6_bisphosphate	0.024019267	mM	kM_R3_D_Fructose_1_6_bisphosphate
Michaelis constant	ALD_R01070	D_Fructose_1_6_bisphosphate	0.22861843	mM	kM_R4_D_Fructose_1_6_bisphosphate
Michaelis constant	ALD_R01070	D_Glyceraldehyde_3_phosphate	0.11313464	mM	kM_R4_D_Glyceraldehyde_3_phosphate
Michaelis constant	TIM_R01015	D_Glyceraldehyde_3_phosphate	0.07811155	mM	kM_R5_D_Glyceraldehyde_3_phosphate
Michaelis constant	GAP_R01061	D_Glyceraldehyde_3_phosphate	0.6115139	mM	kM_R6_D_Glyceraldehyde_3_phosphate
Michaelis constant	TXT_R01641	D_Glyceraldehyde_3_phosphate	1.7864213	mM	kM_R17_D_Glyceraldehyde_3_phosphate
Michaelis constant	TAL_R08575	D_Glyceraldehyde_3_phosphate	0.080048895	mM	kM_R18_D_Glyceraldehyde_3_phosphate
Michaelis constant	TXT_R01067	D_Glyceraldehyde_3_phosphate	1.8269798	mM	kM_R19_D_Glyceraldehyde_3_phosphate
Michaelis constant	PTS_RPTSsy	Phosphoenolpyruvate	0.0085306826	mM	kM_R1_Phosphoenolpyruvate
Michaelis constant	PGH_R00658	Phosphoenolpyruvate	0.18307273	mM	kM_R9_Phosphoenolpyruvate
Michaelis constant	PYK_R00200	Phosphoenolpyruvate	0.16322598	mM	kM_R10_Phosphoenolpyruvate
Michaelis constant	PPC_R00345	Phosphoenolpyruvate	0.14431676	mM	kM_R30_Phosphoenolpyruvate
Michaelis constant	CSN_R00351	Citrate	0.0037852914	mM	kM_R21_Citrate
Michaelis constant	ACN_R01325	Citrate	0.45694327	mM	kM_R22_Citrate
Michaelis constant	KGD_R08549	Succinyl_CoA	0.083874911	mM	kM_R25_Succinyl_CoA
Michaelis constant	SCS_R00405	Succinyl_CoA	0.058355069	mM	kM_R26_Succinyl_CoA
Michaelis constant	PGK_R01512	3_Phospho_D_glycerate	0.66420882	mM	kM_R7__3_Phospho_D_glycerate
Michaelis constant	PGM_R01518	3_Phospho_D_glycerate	1.4803313	mM	kM_R8__3_Phospho_D_glycerate
Michaelis constant	ZWF_R00835	D_Glucono_1_5_lactone_6_phosphate	0.39946146	mM	kM_R12_D_Glucono_1_5_lactone_6_phosphate
Michaelis constant	GLH_R02035	D_Glucono_1_5_lactone_6_phosphate	0.01428343	mM	kM_R13_D_Glucono_1_5_lactone_6_phosphate
Michaelis constant	PGI_R02740	D_Fructose_6_phosphate	0.011864262	mM	kM_R2_D_Fructose_6_phosphate
Michaelis constant	PFK_R04779	D_Fructose_6_phosphate	0.074139903	mM	kM_R3_D_Fructose_6_phosphate
Michaelis constant	TAL_R08575	D_Fructose_6_phosphate	0.45779507	mM	kM_R18_D_Fructose_6_phosphate
Michaelis constant	TXT_R01067	D_Fructose_6_phosphate	2.5229975	mM	kM_R19_D_Fructose_6_phosphate
Michaelis constant	PGM_R01518	2_Phospho_D_glycerate	0.015853975	mM	kM_R8__2_Phospho_D_glycerate
Michaelis constant	PGH_R00658	2_Phospho_D_glycerate	0.41760902	mM	kM_R9__2_Phospho_D_glycerate
Michaelis constant	SCS_R00405	Succinate	0.9298655	mM	kM_R26_Succinate
Michaelis constant	SDH_R02164	Succinate	0.065475263	mM	kM_R27_Succinate
Michaelis constant	TXT_R01641	Sedoheptulose_7_phosphate	1.4845287	mM	kM_R17_Sedoheptulose_7_phosphate
Michaelis constant	TAL_R08575	Sedoheptulose_7_phosphate	0.25474979	mM	kM_R18_Sedoheptulose_7_phosphate
substrate catalytic rate constant	PTS_RPTSsy		38.042775	1/s	kcrf_R1
substrate catalytic rate constant	PGI_R02740		37.961009	1/s	kcrf_R2
substrate catalytic rate constant	PFK_R04779		373.3158	1/s	kcrf_R3
substrate catalytic rate constant	ALD_R01070		31.819526	1/s	kcrf_R4
substrate catalytic rate constant	TIM_R01015		3313.7707	1/s	kcrf_R5
substrate catalytic rate constant	GAP_R01061		123.10146	1/s	kcrf_R6
substrate catalytic rate constant	PGK_R01512		324.35816	1/s	kcrf_R7
substrate catalytic rate constant	PGM_R01518		489.76688	1/s	kcrf_R8
substrate catalytic rate constant	PGH_R00658		192.95947	1/s	kcrf_R9
substrate catalytic rate constant	PYK_R00200		70.779896	1/s	kcrf_R10
substrate catalytic rate constant	PDH_R00209		79.104754	1/s	kcrf_R11
substrate catalytic rate constant	ZWF_R00835		186.41467	1/s	kcrf_R12
substrate catalytic rate constant	GLH_R02035		481.0636	1/s	kcrf_R13
substrate catalytic rate constant	PGD_R01528		201.3273	1/s	kcrf_R14
substrate catalytic rate constant	RPI_R01056		1362.4099	1/s	kcrf_R15
substrate catalytic rate constant	RPE_R01529		1261.3648	1/s	kcrf_R16
substrate catalytic rate constant	TXT_R01641		43.585601	1/s	kcrf_R17
substrate catalytic rate constant	TAL_R08575		6.5697728	1/s	kcrf_R18
substrate catalytic rate constant	TXT_R01067		67.303196	1/s	kcrf_R19
substrate catalytic rate constant	CSN_R00351		4738.6339	1/s	kcrf_R21
substrate catalytic rate constant	ACN_R01325		3.4316827	1/s	kcrf_R22
substrate catalytic rate constant	ACN_R01900		3.3186137	1/s	kcrf_R23
substrate catalytic rate constant	ICD_R00709		517.05153	1/s	kcrf_R24
substrate catalytic rate constant	KGD_R08549		1149.7688	1/s	kcrf_R25
substrate catalytic rate constant	SCS_R00405		191.09763	1/s	kcrf_R26
substrate catalytic rate constant	SDH_R02164		216.31991	1/s	kcrf_R27
substrate catalytic rate constant	FUM_R01082		391.96431	1/s	kcrf_R28
substrate catalytic rate constant	MDH_R00342		807.48734	1/s	kcrf_R29
substrate catalytic rate constant	PPC_R00345		237.60988	1/s	kcrf_R30
product catalytic rate constant	PTS_RPTSsy		0.0004048162	1/s	kcrr_R1
product catalytic rate constant	PGI_R02740		8.3890668	1/s	kcrr_R2
product catalytic rate constant	PFK_R04779		0.41630516	1/s	kcrr_R3
product catalytic rate constant	ALD_R01070		11.396899	1/s	kcrr_R4
product catalytic rate constant	TIM_R01015		282.60568	1/s	kcrr_R5
product catalytic rate constant	GAP_R01061		235.29229	1/s	kcrr_R6
product catalytic rate constant	PGK_R01512		168.00783	1/s	kcrr_R7
product catalytic rate constant	PGM_R01518		27.637389	1/s	kcrr_R8
product catalytic rate constant	PGH_R00658		16.40206	1/s	kcrr_R9
product catalytic rate constant	PYK_R00200		0.03059311	1/s	kcrr_R10
product catalytic rate constant	PDH_R00209		0.037932841	1/s	kcrr_R11
product catalytic rate constant	ZWF_R00835		511.63224	1/s	kcrr_R12
product catalytic rate constant	GLH_R02035		0.053709086	1/s	kcrr_R13
product catalytic rate constant	PGD_R01528		96.484687	1/s	kcrr_R14
product catalytic rate constant	RPI_R01056		836.71744	1/s	kcrr_R15
product catalytic rate constant	RPE_R01529		176.74946	1/s	kcrr_R16
product catalytic rate constant	TXT_R01641		27.661063	1/s	kcrr_R17
product catalytic rate constant	TAL_R08575		3.8298255	1/s	kcrr_R18
product catalytic rate constant	TXT_R01067		8.9988321	1/s	kcrr_R19
product catalytic rate constant	CSN_R00351		0.93406632	1/s	kcrr_R21
product catalytic rate constant	ACN_R01325		5.2692956	1/s	kcrr_R22
product catalytic rate constant	ACN_R01900		12.502319	1/s	kcrr_R23
product catalytic rate constant	ICD_R00709		29.270654	1/s	kcrr_R24
product catalytic rate constant	KGD_R08549		0.059704895	1/s	kcrr_R25
product catalytic rate constant	SCS_R00405		47.020703	1/s	kcrr_R26
product catalytic rate constant	SDH_R02164		31.205952	1/s	kcrr_R27
product catalytic rate constant	FUM_R01082		117.09947	1/s	kcrr_R28
product catalytic rate constant	MDH_R00342		276.28053	1/s	kcrr_R29
product catalytic rate constant	PPC_R00345		2314.9486	1/s	kcrr_R30
protein molecular mass	PTS_RPTSsy		255848	Da	MW_R1
protein molecular mass	PGI_R02740		61530	Da	MW_R2
protein molecular mass	PFK_R04779		139360	Da	MW_R3
protein molecular mass	ALD_R01070		39147	Da	MW_R4
protein molecular mass	TIM_R01015		53940	Da	MW_R5
protein molecular mass	GAP_R01061		35530	Da	MW_R6
protein molecular mass	PGK_R01512		41120	Da	MW_R7
protein molecular mass	PGM_R01518		28556	Da	MW_R8
protein molecular mass	PGH_R00658		45650	Da	MW_R9
protein molecular mass	PYK_R00200		50000	Da	MW_R10
protein molecular mass	PDH_R00209		282880	Da	MW_R11
protein molecular mass	ZWF_R00835		55700	Da	MW_R12
protein molecular mass	GLH_R02035		36310	Da	MW_R13
protein molecular mass	PGD_R01528		102960	Da	MW_R14
protein molecular mass	RPI_R01056		19466	Da	MW_R15
protein molecular mass	RPE_R01529		24554	Da	MW_R16
protein molecular mass	TXT_R01641		73043	Da	MW_R17
protein molecular mass	TAL_R08575		35219	Da	MW_R18
protein molecular mass	TXT_R01067		73043	Da	MW_R19
protein molecular mass	CSN_R00351		96020	Da	MW_R21
protein molecular mass	ACN_R01325		95588	Da	MW_R22
protein molecular mass	ACN_R01900		95588	Da	MW_R23
protein molecular mass	ICD_R00709		45760	Da	MW_R24
protein molecular mass	KGD_R08549		1209180	Da	MW_R25
protein molecular mass	SCS_R00405		71170	Da	MW_R26
protein molecular mass	SDH_R02164		792299	Da	MW_R27
protein molecular mass	FUM_R01082		60000	Da	MW_R28
protein molecular mass	MDH_R00342		32337	Da	MW_R29
protein molecular mass	PPC_R00345		198120	Da	MW_R30
molecular mass		S_Malate	134	Da	MW_S_Malate
molecular mass		Acetyl_CoA	810	Da	MW_Acetyl_CoA
molecular mass		Fumarate	116	Da	MW_Fumarate
molecular mass		cis_Aconitate	174	Da	MW_cis_Aconitate
molecular mass		6_Phospho_D_gluconate	276	Da	MW_6_Phospho_D_gluconate
molecular mass		Orthophosphate	98	Da	MW_Orthophosphate
molecular mass		Pyruvate	88	Da	MW_Pyruvate
molecular mass		NADPplus	744	Da	MW_NADPplus
molecular mass		NADPH	745	Da	MW_NADPH
molecular mass		NADH	665	Da	MW_NADH
molecular mass		NADplus	664	Da	MW_NADplus
molecular mass		ATP	507	Da	MW_ATP
molecular mass		H2O	18	Da	MW_H2O
molecular mass		2_Oxoglutarate	146	Da	MW_2_Oxoglutarate
molecular mass		Oxaloacetate	132	Da	MW_Oxaloacetate
molecular mass		Ubiquinone	318	Da	MW_Ubiquinone
molecular mass		D_Erythrose_4_phosphate	200	Da	MW_D_Erythrose_4_phosphate
molecular mass		Ubiquinol	320	Da	MW_Ubiquinol
molecular mass		ADP	427	Da	MW_ADP
molecular mass		Isocitrate	192	Da	MW_Isocitrate
molecular mass		D_Ribulose_5_phosphate	230	Da	MW_D_Ribulose_5_phosphate
molecular mass		D_Xylulose_5_phosphate	230	Da	MW_D_Xylulose_5_phosphate
molecular mass		D_Glucose_6_phosphate	260	Da	MW_D_Glucose_6_phosphate
molecular mass		3_Phospho_D_glyceroyl_phosphate	266	Da	MW_3_Phospho_D_glyceroyl_phosphate
molecular mass		CoA	768	Da	MW_CoA
molecular mass		CO2	44	Da	MW_CO2
molecular mass		D_Ribose_5_phosphate	230	Da	MW_D_Ribose_5_phosphate
molecular mass		Glycerone_phosphate	170	Da	MW_Glycerone_phosphate
molecular mass		D_Glucose	180	Da	MW_D_Glucose
molecular mass		D_Fructose_1_6_bisphosphate	340	Da	MW_D_Fructose_1_6_bisphosphate
molecular mass		D_Glyceraldehyde_3_phosphate	170	Da	MW_D_Glyceraldehyde_3_phosphate
molecular mass		Phosphoenolpyruvate	168	Da	MW_Phosphoenolpyruvate
molecular mass		Citrate	192	Da	MW_Citrate
molecular mass		Succinyl_CoA	868	Da	MW_Succinyl_CoA
molecular mass		3_Phospho_D_glycerate	186	Da	MW_3_Phospho_D_glycerate
molecular mass		D_Glucono_1_5_lactone_6_phosphate	258	Da	MW_D_Glucono_1_5_lactone_6_phosphate
molecular mass		D_Fructose_6_phosphate	260	Da	MW_D_Fructose_6_phosphate
molecular mass		2_Phospho_D_glycerate	186	Da	MW_2_Phospho_D_glycerate
molecular mass		Succinate	118	Da	MW_Succinate
molecular mass		Sedoheptulose_7_phosphate	290	Da	MW_Sedoheptulose_7_phosphate
					
!!SBtab TableID='Flux' TableType='Quantity' TableName='Flux' SBtabVersion='1.0' Unit='dimensionless'					
!QuantityType	!Reaction	!Value			
flux	PTS_RPTSsy	0.5691			
flux	PGI_R02740	0.385			
flux	PFK_R04779	0.4417			
flux	ALD_R01070	0.44702			
flux	TIM_R01015	0.4445			
flux	GAP_R01061	0.9163			
flux	PGK_R01512	0.8946			
flux	PGM_R01518	0.8729			
flux	PGH_R00658	0.91875			
flux	PYK_R00200	0.1841			
flux	PDH_R00209	0.3787			
flux	ZWF_R00835	0.1813			
flux	GLH_R02035	0.1568			
flux	PGD_R01528	0.1323			
flux	RPI_R01056	0.049933333			
flux	RPE_R01529	0.077233333			
flux	TXT_R01641	0.0448			
flux	TAL_R08575	0.0448			
flux	TXT_R01067	0.0273			
flux	CSN_R00351	0.154			
flux	ACN_R01325	0.154			
flux	ACN_R01900	0.154			
flux	ICD_R00709	0.154			
flux	KGD_R08549	0.0924			
flux	SCS_R00405	0.1673			
flux	SDH_R02164	0.0924			
flux	FUM_R01082	0.0924			
flux	MDH_R00342	0.0602			
flux	PPC_R00345	0.2114			
					
!!SBtab TableID='ConcentrationConstraint' TableType='Quantity' TableName='ConcentrationConstraint' SBtabVersion='1.0' Unit='mM'					
!QuantityType	!Compound	!Min	!Max		
concentration	S_Malate	0.001	10		
concentration	Acetyl_CoA	0.001	10		
concentration	Fumarate	0.001	10		
concentration	cis_Aconitate	0.001	10		
concentration	6_Phospho_D_gluconate	0.001	10		
concentration	Orthophosphate	10	10		
concentration	Pyruvate	0.001	10		
concentration	NADPplus	0.1	0.1		
concentration	NADPH	0.11389157	0.11389157		
concentration	NADH	0.02741513	0.02741513		
concentration	NADplus	1	1		
concentration	ATP	3.4491395	3.4491395		
concentration	2_Oxoglutarate	0.001	10		
concentration	Oxaloacetate	0.001	10		
concentration	Ubiquinone	0.1	0.1		
concentration	D_Erythrose_4_phosphate	0.001	10		
concentration	Ubiquinol	0.1	0.1		
concentration	ADP	0.60461237	0.60461237		
concentration	Isocitrate	0.001	10		
concentration	D_Ribulose_5_phosphate	0.001	10		
concentration	D_Xylulose_5_phosphate	0.001	10		
concentration	D_Glucose_6_phosphate	0.001	10		
concentration	3_Phospho_D_glyceroyl_phosphate	0.001	10		
concentration	CoA	1	1		
concentration	CO2	0.01	0.01		
concentration	D_Ribose_5_phosphate	0.001	10		
concentration	Glycerone_phosphate	0.001	10		
concentration	D_Glucose	12	12		
concentration	D_Fructose_1_6_bisphosphate	0.001	10		
concentration	D_Glyceraldehyde_3_phosphate	0.001	10		
concentration	Phosphoenolpyruvate	0.001	10		
concentration	Citrate	0.001	10		
concentration	Succinyl_CoA	0.001	10		
concentration	3_Phospho_D_glycerate	0.001	10		
concentration	D_Glucono_1_5_lactone_6_phosphate	0.001	10		
concentration	D_Fructose_6_phosphate	0.001	10		
concentration	2_Phospho_D_glycerate	0.001	10		
concentration	Succinate	0.001	10		
concentration	Sedoheptulose_7_phosphate	0.001	10		
concentration	H2O	1	1		
